{
  "destination": "./build",
  "metadata": {
    "title": "AGATAs",
    "description": "avenir"
  },
  "plugins": {
		"metalsmith-markdown": {},
    "metalsmith-permalinks": {"pattern": ":title"},
	"metalsmith-sitemap": {
		"hostname": "http://agatas.org",
		"omitIndex": true
	},
    "metalsmith-layouts": {"engine": "pug"},
    "metalsmith-pug": {},
    "metalsmith-stylus": {},
	"metalsmith-ignore": ["**/_*", "_**/*"]
	}
}
