<?xml version="1.0" encoding="UTF-8" standalone="no"?>
<!-- Created with Inkscape (http://www.inkscape.org/) -->

<svg
   xmlns:dc="http://purl.org/dc/elements/1.1/"
   xmlns:cc="http://creativecommons.org/ns#"
   xmlns:rdf="http://www.w3.org/1999/02/22-rdf-syntax-ns#"
   xmlns:svg="http://www.w3.org/2000/svg"
   xmlns="http://www.w3.org/2000/svg"
   xmlns:sodipodi="http://sodipodi.sourceforge.net/DTD/sodipodi-0.dtd"
   xmlns:inkscape="http://www.inkscape.org/namespaces/inkscape"
   width="45"
   height="45"
   viewBox="0 0 45 45.000001"
   id="svg4958"
   version="1.1"
   inkscape:version="0.92.1 r15371"
   sodipodi:docname="approuve.svg"
   inkscape:export-filename="D:\0-0-Agata\graphik\pictogrammes\Pictos-fonctions\picto-loupe.png"
   inkscape:export-xdpi="300"
   inkscape:export-ydpi="300">
  <defs
     id="defs4960" />
  <sodipodi:namedview
     id="base"
     pagecolor="#ffffff"
     bordercolor="#666666"
     borderopacity="1.0"
     inkscape:pageopacity="0.0"
     inkscape:pageshadow="2"
     inkscape:zoom="7.9195959"
     inkscape:cx="13.001019"
     inkscape:cy="29.762198"
     inkscape:document-units="px"
     inkscape:current-layer="layer1"
     showgrid="false"
     units="px"
     inkscape:window-width="1366"
     inkscape:window-height="705"
     inkscape:window-x="-8"
     inkscape:window-y="-8"
     inkscape:window-maximized="1">
    <inkscape:grid
       type="xygrid"
       id="grid6185" />
  </sodipodi:namedview>
  <metadata
     id="metadata4963">
    <rdf:RDF>
      <cc:Work
         rdf:about="">
        <dc:format>image/svg+xml</dc:format>
        <dc:type
           rdf:resource="http://purl.org/dc/dcmitype/StillImage" />
        <dc:title></dc:title>
      </cc:Work>
    </rdf:RDF>
  </metadata>
  <g
     inkscape:label="Calque 1"
     inkscape:groupmode="layer"
     id="layer1"
     transform="translate(0,-1007.3622)">
    <rect
       style="opacity:1;fill:none;fill-opacity:1;stroke:none;stroke-width:1.95103896;stroke-linecap:round;stroke-linejoin:round;stroke-miterlimit:4;stroke-dasharray:none;stroke-dashoffset:0;stroke-opacity:1"
       id="rect5524-3"
       width="45"
       height="45"
       x="-47.501274"
       y="1008.649" />
    <rect
       style="opacity:1;fill:none;fill-opacity:1;stroke:none;stroke-width:1.95103896;stroke-linecap:round;stroke-linejoin:round;stroke-miterlimit:4;stroke-dasharray:none;stroke-dashoffset:0;stroke-opacity:1"
       id="rect5524"
       width="45"
       height="45"
       x="0"
       y="1007.3622"
       inkscape:export-filename="D:\0-0-Agata\graphik\pictogrammes\Déf-1\visu.png"
       inkscape:export-xdpi="300"
       inkscape:export-ydpi="300" />
    <rect
       style="opacity:1;fill:none;fill-opacity:1;stroke:none;stroke-width:1.95103896;stroke-linecap:round;stroke-linejoin:round;stroke-miterlimit:4;stroke-dasharray:none;stroke-dashoffset:0;stroke-opacity:1"
       id="rect5524-31"
       width="45"
       height="45"
       x="0"
       y="1007.3622"
       inkscape:export-filename="D:\0-0-Agata\graphik\pictogrammes\Déf-1\visu.png"
       inkscape:export-xdpi="300"
       inkscape:export-ydpi="300" />
    <g
       transform="matrix(0.58666663,0,0,0.58666663,-907.02966,1239.7613)"
       style="display:inline"
       id="g19394">
      <circle
         inkscape:export-ydpi="300"
         inkscape:export-xdpi="300"
         inkscape:export-filename="F:\Transition-territoriale\planche-pictogrammes.png"
         r="35.927299"
         cy="-357.7825"
         cx="1584.4257"
         id="path5962-3-7-2-0-9-21-0-1-1-0-6-6"
         style="display:inline;opacity:1;fill:#fafafa;fill-opacity:1;stroke:#8c8c8c;stroke-width:3.14540601;stroke-linecap:round;stroke-miterlimit:4;stroke-dasharray:none;stroke-dashoffset:0;stroke-opacity:1" />
      <g
         transform="translate(188.26718,-73.5833)"
         id="g19386">
        <path
           inkscape:connector-curvature="0"
           d="m 1424.9291,-290.69714 -1.286,-0.87993 c -1.4215,-0.94762 -2.0306,-2.77517 -1.5569,-4.39967 l 0.4061,-1.48911 c 0.677,-2.30136 -0.8798,-4.67041 -3.2489,-5.07653 l -1.5568,-0.27075 c -1.6921,-0.27074 -3.046,-1.5568 -3.3167,-3.24898 l -0.2707,-1.5568 c -0.4062,-2.36905 -2.7752,-3.85817 -5.0765,-3.18129 l -1.4891,0.47381 c -1.6245,0.4738 -3.4521,-0.13538 -4.3997,-1.48912 l -0.9476,-1.35374 c -1.4214,-1.96292 -4.1967,-2.23368 -5.9565,-0.60919 l -1.1507,1.083 c -1.286,1.15068 -3.1136,1.42142 -4.6704,0.54149 l -1.3538,-0.74456 c -2.0982,-1.15067 -4.738,-0.20305 -5.6856,2.03062 l -0.6092,1.48912 c -0.6092,1.62449 -2.2337,2.63979 -3.9259,2.50442 l -1.5568,-0.0677 c -2.4368,-0.13537 -4.3996,1.89524 -4.1966,4.26428 l 0.1354,1.55681 c 0.1353,1.69217 -0.8799,3.31666 -2.4367,3.99354 l -1.4215,0.60918 c -2.2336,0.94762 -3.1135,3.58741 -1.9629,5.68571 l 0.8123,1.35375 c 0.8799,1.48912 0.6768,3.38435 -0.4738,4.67041 l -1.0154,1.15067 c -1.6245,1.82755 -1.286,4.60273 0.7446,5.95646 l 1.2861,0.87994 c 1.4214,0.94762 2.0306,2.77517 1.5568,4.39966 l -0.6092,1.5568 c -0.6769,2.30136 0.8799,4.67041 3.2489,5.07653 l 1.5569,0.27075 c 1.6922,0.27075 3.0459,1.55681 3.3166,3.24898 l 0.2708,1.55681 c 0.4061,2.36904 2.7752,3.85816 5.0765,3.18129 l 1.4891,-0.47381 c 1.6245,-0.47382 3.452,0.13537 4.3996,1.48911 l 0.9477,1.28606 c 1.4215,1.96292 4.1966,2.23367 5.9564,0.60918 l 1.1508,-1.08299 c 1.2859,-1.15068 3.1136,-1.42143 4.6704,-0.5415 l 1.3537,0.74456 c 2.0983,1.15068 4.7381,0.20306 5.6857,-2.03061 l 0.6092,-1.48912 c 0.6092,-1.62449 2.2336,-2.63979 3.9259,-2.50442 l 1.5568,0.0677 c 2.4367,0.13537 4.3996,-1.89525 4.1965,-4.26429 l -0.068,-1.55681 c -0.1353,-1.69217 0.88,-3.31666 2.4367,-3.99353 l 1.4214,-0.60918 c 2.2338,-0.94763 3.1136,-3.58742 1.963,-5.68572 l -0.8122,-1.35374 c -0.88,-1.48912 -0.6769,-3.38435 0.4737,-4.67041 l 1.0154,-1.15068 c 1.6922,-1.75987 1.3537,-4.60272 -0.6093,-5.95646 z m -28.8347,26.73639 c -11.1683,0 -20.1707,-9.07007 -20.1707,-20.23843 0,-11.16837 9.0701,-20.17075 20.1707,-20.17075 11.1007,0 20.1708,9.00238 20.1708,20.17075 0,11.16836 -9.0024,20.23843 -20.1708,20.23843 z m 0,-35.87414 c -8.5962,0 -15.6356,7.03944 -15.6356,15.63571 0,8.59626 7.0394,15.63571 15.6356,15.63571 8.5964,0 15.6358,-7.03945 15.6358,-15.63571 0,-8.59627 -7.0394,-15.63571 -15.6358,-15.63571 z m 1.2184,19.76462 -3.5874,3.58742 -3.5875,-3.65511 -3.452,-3.45204 3.5874,-3.58742 3.4521,3.45205 8.2578,-8.19014 3.5874,3.58742 z"
           id="path18737"
           style="fill:#fa519c;fill-opacity:1;stroke-width:0.67687076" />
        <g
           id="g19380"
           transform="matrix(1.0151515,0,0,1.0151515,-21.153923,4.3060443)">
          <circle
             r="15.46875"
             cy="-284.19919"
             cx="1396.1584"
             id="path19375"
             style="opacity:1;fill:#b2356c;fill-opacity:1;stroke:none;stroke-width:1.57694507;stroke-linecap:round;stroke-linejoin:round;stroke-miterlimit:4;stroke-dasharray:none;stroke-opacity:1" />
        </g>
        <path
           style="fill:none;stroke:#ffffff;stroke-width:4.46440506;stroke-linecap:round;stroke-linejoin:miter;stroke-miterlimit:4;stroke-dasharray:none;stroke-opacity:1"
           d="m 1387.2054,-284.21483 6.52,5.95095 12.3647,-10.68904"
           id="path19377"
           inkscape:connector-curvature="0"
           sodipodi:nodetypes="ccc" />
      </g>
    </g>
  </g>
</svg>
