<?xml version="1.0" encoding="UTF-8" standalone="no"?>
<!-- Created with Inkscape (http://www.inkscape.org/) -->

<svg
   xmlns:dc="http://purl.org/dc/elements/1.1/"
   xmlns:cc="http://creativecommons.org/ns#"
   xmlns:rdf="http://www.w3.org/1999/02/22-rdf-syntax-ns#"
   xmlns:svg="http://www.w3.org/2000/svg"
   xmlns="http://www.w3.org/2000/svg"
   xmlns:sodipodi="http://sodipodi.sourceforge.net/DTD/sodipodi-0.dtd"
   xmlns:inkscape="http://www.inkscape.org/namespaces/inkscape"
   width="48"
   height="48"
   viewBox="0 0 45 45.000001"
   id="svg4958"
   version="1.1"
   inkscape:version="0.92.1 r15371"
   sodipodi:docname="autre-internet.svg"
   inkscape:export-filename="D:\0-0-Agata\graphik\pictogrammes\Pictos-fonctions\picto-loupe.png"
   inkscape:export-xdpi="300"
   inkscape:export-ydpi="300">
  <defs
     id="defs4960" />
  <sodipodi:namedview
     id="base"
     pagecolor="#ffffff"
     bordercolor="#666666"
     borderopacity="1.0"
     inkscape:pageopacity="0.0"
     inkscape:pageshadow="2"
     inkscape:zoom="7.9195959"
     inkscape:cx="4.7230494"
     inkscape:cy="29.762198"
     inkscape:document-units="px"
     inkscape:current-layer="layer1"
     showgrid="true"
     units="px"
     inkscape:window-width="1366"
     inkscape:window-height="705"
     inkscape:window-x="-8"
     inkscape:window-y="-8"
     inkscape:window-maximized="1">
    <inkscape:grid
       type="xygrid"
       id="grid6185"
       originx="0"
       originy="0"
       spacingx="1"
       spacingy="1" />
  </sodipodi:namedview>
  <metadata
     id="metadata4963">
    <rdf:RDF>
      <cc:Work
         rdf:about="">
        <dc:format>image/svg+xml</dc:format>
        <dc:type
           rdf:resource="http://purl.org/dc/dcmitype/StillImage" />
        <dc:title></dc:title>
      </cc:Work>
    </rdf:RDF>
  </metadata>
  <g
     inkscape:label="Calque 1"
     inkscape:groupmode="layer"
     id="layer1"
     transform="translate(0,-1007.3622)">
    <rect
       style="opacity:1;fill:none;fill-opacity:1;stroke:none;stroke-width:1.95103896;stroke-linecap:round;stroke-linejoin:round;stroke-miterlimit:4;stroke-dasharray:none;stroke-dashoffset:0;stroke-opacity:1"
       id="rect5524-3"
       width="45"
       height="45"
       x="-47.501274"
       y="1008.649" />
    <rect
       style="opacity:1;fill:none;fill-opacity:1;stroke:none;stroke-width:1.95103896;stroke-linecap:round;stroke-linejoin:round;stroke-miterlimit:4;stroke-dasharray:none;stroke-dashoffset:0;stroke-opacity:1"
       id="rect5524"
       width="45"
       height="45"
       x="1.110223e-016"
       y="1007.3622"
       inkscape:export-filename="D:\0-0-Agata\graphik\pictogrammes\Déf-1\visu.png"
       inkscape:export-xdpi="300"
       inkscape:export-ydpi="300" />
    <rect
       style="opacity:1;fill:none;fill-opacity:1;stroke:none;stroke-width:1.95103896;stroke-linecap:round;stroke-linejoin:round;stroke-miterlimit:4;stroke-dasharray:none;stroke-dashoffset:0;stroke-opacity:1"
       id="rect5524-31"
       width="45"
       height="45"
       x="1.110223e-016"
       y="1007.3622"
       inkscape:export-filename="D:\0-0-Agata\graphik\pictogrammes\Déf-1\visu.png"
       inkscape:export-xdpi="300"
       inkscape:export-ydpi="300" />
    <g
       style="display:inline"
       id="g7023"
       transform="matrix(0.57499997,0,0,0.57499997,-875.57808,1173.5117)"
       inkscape:export-xdpi="300"
       inkscape:export-ydpi="300">
      <circle
         inkscape:export-ydpi="300"
         inkscape:export-xdpi="300"
         inkscape:export-filename="F:\Transition-territoriale\planche-pictogrammes.png"
         r="35.927299"
         cy="-249.82526"
         cx="1561.875"
         id="path5962-3-7-2-0-9-21-0-1-1-3"
         style="display:inline;opacity:1;fill:#f5f5f5;fill-opacity:1;stroke:#0f3dfa;stroke-width:3.14540601;stroke-linecap:round;stroke-miterlimit:4;stroke-dasharray:none;stroke-dashoffset:0;stroke-opacity:1" />
      <g
         transform="matrix(0.65,0,0,0.65,549.39479,-17.607202)"
         id="g7014">
        <path
           inkscape:connector-curvature="0"
           d="m 1534.5431,-356.70026 c 0,-5.81531 -4.7316,-10.54687 -10.5469,-10.54687 -5.8153,0 -10.5468,4.73156 -10.5468,10.54687 0,5.81531 4.7315,10.54688 10.5468,10.54688 5.8153,0 10.5469,-4.73157 10.5469,-10.54688 z m -14.0625,0 c 0,-1.93875 1.5769,-3.51562 3.5156,-3.51562 1.9388,0 3.5157,1.57687 3.5157,3.51562 0,1.93875 -1.5769,3.51563 -3.5157,3.51563 -1.9387,0 -3.5156,-1.57688 -3.5156,-3.51563 z"
           id="path6284-1-6"
           style="display:inline;fill:#ab3aa4;fill-opacity:1;stroke-width:0.9375" />
        <polygon
           style="display:inline;fill:#ff8b08;fill-opacity:1"
           transform="matrix(0.93750001,0,0,0.93750001,1511.7148,-410.60647)"
           points="55.303,68.106 60.606,62.803 55.303,57.5 60.606,52.197 55.303,46.894 50,52.197 44.697,46.894 39.394,52.197 44.697,57.5 39.394,62.803 44.697,68.106 50,62.803 "
           id="polygon6286-1-0" />
        <polygon
           style="display:inline;fill:#3d3aab;fill-opacity:1"
           transform="matrix(0.93750001,0,0,0.93750001,1517.3398,-410.60647)"
           points="87.955,46.894 77.348,57.5 72.045,52.197 66.742,57.5 77.348,68.106 93.258,52.197 "
           id="polygon6288-6-8" />
        <path
           inkscape:connector-curvature="0"
           d="m 1555.8271,-338.67123 c 0,8.07773 -6.5708,14.64843 -14.6486,14.64843 -8.0777,0 -14.6483,-6.5707 -14.6483,-14.64843 v -2.92969 h -5.8594 v 2.92969 c 0,11.30742 9.2004,20.50781 20.5077,20.50781 11.3075,0 20.5079,-9.20039 20.5079,-20.50781 v -2.92969 h -5.8593 z"
           id="path6292-7-3"
           style="display:inline;fill:#3d3aab;fill-opacity:1;stroke-width:1.171875" />
        <path
           inkscape:connector-curvature="0"
           d="m 1590.9384,-375.0987 c 0,-8.07774 -6.5707,-14.64844 -14.6485,-14.64844 -8.0777,0 -14.6484,6.5707 -14.6484,14.64844 v 2.92969 h -5.8593 v -2.92969 c 0,-11.30742 9.2004,-20.50781 20.5077,-20.50781 11.3075,0 20.5079,9.20039 20.5079,20.50781 v 2.92969 h -5.8594 z"
           id="path6292-7-1-3"
           style="display:inline;fill:#ab3aa4;fill-opacity:1;stroke-width:1.171875" />
      </g>
    </g>
  </g>
</svg>
