<?xml version="1.0" encoding="UTF-8" standalone="no"?>
<!-- Created with Inkscape (http://www.inkscape.org/) -->

<svg
   xmlns:dc="http://purl.org/dc/elements/1.1/"
   xmlns:cc="http://creativecommons.org/ns#"
   xmlns:rdf="http://www.w3.org/1999/02/22-rdf-syntax-ns#"
   xmlns:svg="http://www.w3.org/2000/svg"
   xmlns="http://www.w3.org/2000/svg"
   xmlns:sodipodi="http://sodipodi.sourceforge.net/DTD/sodipodi-0.dtd"
   xmlns:inkscape="http://www.inkscape.org/namespaces/inkscape"
   width="48"
   height="48"
   viewBox="0 0 45 45.000001"
   id="svg4958"
   version="1.1"
   inkscape:version="0.92.1 r15371"
   sodipodi:docname="data-pas-vendue.svg"
   inkscape:export-filename="D:\0-0-Agata\graphik\pictogrammes\Pictos-fonctions\picto-loupe.png"
   inkscape:export-xdpi="300"
   inkscape:export-ydpi="300">
  <defs
     id="defs4960" />
  <sodipodi:namedview
     id="base"
     pagecolor="#ffffff"
     bordercolor="#666666"
     borderopacity="1.0"
     inkscape:pageopacity="0.0"
     inkscape:pageshadow="2"
     inkscape:zoom="7.9195959"
     inkscape:cx="4.0129833"
     inkscape:cy="29.762198"
     inkscape:document-units="px"
     inkscape:current-layer="layer1"
     showgrid="true"
     units="px"
     inkscape:window-width="1366"
     inkscape:window-height="705"
     inkscape:window-x="-8"
     inkscape:window-y="-8"
     inkscape:window-maximized="1">
    <inkscape:grid
       type="xygrid"
       id="grid6185"
       originx="0"
       originy="0"
       spacingx="1"
       spacingy="1" />
  </sodipodi:namedview>
  <metadata
     id="metadata4963">
    <rdf:RDF>
      <cc:Work
         rdf:about="">
        <dc:format>image/svg+xml</dc:format>
        <dc:type
           rdf:resource="http://purl.org/dc/dcmitype/StillImage" />
        <dc:title></dc:title>
      </cc:Work>
    </rdf:RDF>
  </metadata>
  <g
     inkscape:label="Calque 1"
     inkscape:groupmode="layer"
     id="layer1"
     transform="translate(0,-1007.3622)">
    <rect
       style="opacity:1;fill:none;fill-opacity:1;stroke:none;stroke-width:1.95103896;stroke-linecap:round;stroke-linejoin:round;stroke-miterlimit:4;stroke-dasharray:none;stroke-dashoffset:0;stroke-opacity:1"
       id="rect5524-3"
       width="45"
       height="45"
       x="-47.501274"
       y="1008.649" />
    <rect
       style="opacity:1;fill:none;fill-opacity:1;stroke:none;stroke-width:1.95103896;stroke-linecap:round;stroke-linejoin:round;stroke-miterlimit:4;stroke-dasharray:none;stroke-dashoffset:0;stroke-opacity:1"
       id="rect5524"
       width="45"
       height="45"
       x="0"
       y="1007.3622"
       inkscape:export-filename="D:\0-0-Agata\graphik\pictogrammes\Déf-1\visu.png"
       inkscape:export-xdpi="300"
       inkscape:export-ydpi="300" />
    <rect
       style="opacity:1;fill:none;fill-opacity:1;stroke:none;stroke-width:1.95103896;stroke-linecap:round;stroke-linejoin:round;stroke-miterlimit:4;stroke-dasharray:none;stroke-dashoffset:0;stroke-opacity:1"
       id="rect5524-31"
       width="45"
       height="45"
       x="0"
       y="1007.3622"
       inkscape:export-filename="D:\0-0-Agata\graphik\pictogrammes\Déf-1\visu.png"
       inkscape:export-xdpi="300"
       inkscape:export-ydpi="300" />
    <g
       transform="matrix(0.57499997,0,0,0.57499997,-1033.5233,1178.0937)"
       style="display:inline"
       id="g6422">
      <circle
         inkscape:export-ydpi="300"
         inkscape:export-xdpi="300"
         inkscape:export-filename="F:\Transition-territoriale\planche-pictogrammes.png"
         r="35.927299"
         cy="-257.79398"
         cx="1836.5624"
         id="path5962-3-7-2-0-9-21-0-1-5"
         style="display:inline;opacity:1;fill:#f5f5f5;fill-opacity:1;stroke:#8c8c8c;stroke-width:3.14540601;stroke-linecap:round;stroke-miterlimit:4;stroke-dasharray:none;stroke-dashoffset:0;stroke-opacity:1" />
      <path
         style="fill:#4b4b4b;fill-opacity:1;stroke-width:0.53767526"
         inkscape:connector-curvature="0"
         d="m 1827.7096,-277.40957 h 9.3017 c 4.8392,0 8.818,3.92503 8.9792,8.76411 0.9141,-0.21508 1.882,-0.26885 2.796,-0.26885 1.9356,0 3.7638,0.37638 5.4304,1.07536 v -9.35555 c 0,-4.4627 -3.6561,-8.1189 -8.1188,-8.1189 h -10.5384 c -4.3014,0 -7.8501,3.44112 -7.9576,7.74252 0,0.10754 0.054,0.16131 0.1075,0.16131 z"
         id="path6336-0-6" />
      <path
         style="fill:#4b4b4b;fill-opacity:1;stroke-width:0.53767526"
         inkscape:connector-curvature="0"
         d="m 1834.9682,-255.09605 c 0,-6.1295 4.0326,-11.34495 9.5706,-13.17304 -0.1613,-4.3014 -3.6562,-7.74252 -7.9576,-7.74252 h -19.195 c -4.4088,0 -8.0113,3.60242 -8.0113,7.95758 v 24.518 c 0,4.40894 3.6025,8.01136 8.0113,8.01136 h 19.195 c 3.8712,0 7.0973,-2.79591 7.8501,-6.4521 -5.5381,-1.88186 -9.4631,-7.04354 -9.4631,-13.11928 z m -19.1413,-5.21545 h 11.5063 v 1.72056 h -11.5063 z m 0,7.47369 h 11.5063 v 1.72056 h -11.5063 z m 14.9474,9.19425 h -14.9474 v -1.72057 h 14.9474 z m 0,-22.42106 h -14.9474 v -1.72056 h 14.9474 z"
         id="path6338-2-6" />
      <g
         transform="matrix(0.74302225,0,0,0.74302225,572.0305,-20.770084)"
         id="g9840-5">
        <path
           id="path6340-5-2"
           d="m 1720.0183,-335.93808 c -11.8125,0 -21.375,9.5625 -21.375,21.375 0,11.8125 9.5625,21.375 21.375,21.375 11.8125,-0.0937 21.375,-9.65625 21.375,-21.375 0,-11.71875 -9.5625,-21.375 -21.375,-21.375 z"
           inkscape:connector-curvature="0"
           style="fill:#bb4b4b;fill-opacity:1;stroke-width:0.9375"
           sodipodi:nodetypes="sscss" />
        <path
           inkscape:connector-curvature="0"
           d="m 1709.1445,-321.21974 c 0,-4.34633 3.0635,-7.75514 8.3473,-8.79136 v -2.27389 a 2.4198878,2.4198878 0 1 1 4.8397,0 v 1.92439 a 21.06963,21.06963 0 0 1 4.5231,0.64969 2.8783648,2.8783648 0 0 1 -0.7319,5.62103 2.7591182,2.7591182 0 0 1 -0.7895,-0.11514 15.168982,15.168982 0 0 0 -4.3873,-0.62912 c -3.2073,0 -4.2271,1.38984 -4.2271,2.77556 0,1.64479 1.7269,2.66865 5.9252,4.24765 5.8759,2.05597 8.2486,4.79042 8.2486,9.23543 0,4.44502 -3.1292,8.14578 -8.8284,9.13264 v 2.6152 a 2.4199,2.4199 0 1 1 -4.8398,0 v -2.26979 a 22.813097,22.813097 0 0 1 -5.8799,-1.065 2.8783648,2.8783648 0 0 1 -1.8956,-3.42936 l 0.061,-0.23439 a 2.7920139,2.7920139 0 0 1 2.7262,-2.09298 2.9359321,2.9359321 0 0 1 0.95,0.16038 16.620501,16.620501 0 0 0 5.3455,0.91695 c 2.8166,0 4.7412,-1.08555 4.7412,-3.06339 0,-1.87506 -1.5793,-3.06341 -5.2346,-4.29699 -5.288,-1.75992 -8.8942,-4.22709 -8.8942,-9.01751 z"
           id="path9256-6"
           style="fill:#ffa200;fill-opacity:1;stroke:none;stroke-width:0.41119498;stroke-opacity:1" />
      </g>
      <path
         inkscape:connector-curvature="0"
         id="path6392"
         d="m 1860.9375,-281.70029 -47.8886,47.88864"
         style="fill:none;stroke:#ff0000;stroke-width:2.70899081;stroke-linecap:round;stroke-linejoin:miter;stroke-miterlimit:4;stroke-dasharray:none;stroke-opacity:1" />
      <path
         inkscape:connector-curvature="0"
         id="path6392-0"
         d="m 1813.0489,-281.70029 47.8886,47.88865"
         style="display:inline;fill:none;stroke:#ff0000;stroke-width:2.70899081;stroke-linecap:round;stroke-linejoin:miter;stroke-miterlimit:4;stroke-dasharray:none;stroke-opacity:1" />
    </g>
  </g>
</svg>
